EESchema Schematic File Version 4
EELAYER 30 0
EELAYER END
$Descr A4 11693 8268
encoding utf-8
Sheet 1 1
Title ""
Date ""
Rev ""
Comp ""
Comment1 ""
Comment2 ""
Comment3 ""
Comment4 ""
$EndDescr
$Comp
L Device:LED D1
U 1 1 5E08950D
P 1950 3150
F 0 "D1" H 1943 2895 50  0000 C CNN
F 1 "RLED" H 1943 2986 50  0000 C CNN
F 2 "" H 1950 3150 50  0001 C CNN
F 3 "~" H 1950 3150 50  0001 C CNN
	1    1950 3150
	1    0    0    -1  
$EndComp
$Comp
L Device:LED D2
U 1 1 5E089E3F
P 1950 3050
F 0 "D2" H 1943 3266 50  0000 C CNN
F 1 "GLED" H 1943 3175 50  0000 C CNN
F 2 "" H 1950 3050 50  0001 C CNN
F 3 "~" H 1950 3050 50  0001 C CNN
	1    1950 3050
	1    0    0    -1  
$EndComp
$Comp
L Device:R_US R1
U 1 1 5E08C165
P 1500 3050
F 0 "R1" V 1295 3050 50  0000 C CNN
F 1 "220" V 1386 3050 50  0000 C CNN
F 2 "" V 1540 3040 50  0001 C CNN
F 3 "~" H 1500 3050 50  0001 C CNN
	1    1500 3050
	0    1    1    0   
$EndComp
$Comp
L Device:R_US R2
U 1 1 5E08D202
P 1500 3150
F 0 "R2" V 1295 3150 50  0000 C CNN
F 1 "220" V 1386 3150 50  0000 C CNN
F 2 "" V 1540 3140 50  0001 C CNN
F 3 "~" H 1500 3150 50  0001 C CNN
	1    1500 3150
	0    -1   -1   0   
$EndComp
$Comp
L Device:R_US R3
U 1 1 5E08D2CB
P 2150 2150
F 0 "R3" V 1945 2150 50  0000 C CNN
F 1 "4.7K" V 2036 2150 50  0000 C CNN
F 2 "" V 2190 2140 50  0001 C CNN
F 3 "~" H 2150 2150 50  0001 C CNN
	1    2150 2150
	0    1    1    0   
$EndComp
$Comp
L Sensor_Temperature:DS18B20 U1
U 1 1 5E093292
P 1500 2150
F 0 "U1" H 1270 2196 50  0000 R CNN
F 1 "DS18B20" H 1270 2105 50  0000 R CNN
F 2 "Package_TO_SOT_THT:TO-92_Inline" H 500 1900 50  0001 C CNN
F 3 "http://datasheets.maximintegrated.com/en/ds/DS18B20.pdf" H 1350 2400 50  0001 C CNN
	1    1500 2150
	1    0    0    -1  
$EndComp
$Comp
L dk_Rectangular-Connectors-Headers-Male-Pins:0022232041 J1
U 1 1 5E096960
P 4000 2350
F 0 "J1" V 3775 2358 50  0000 C CNN
F 1 "Oled" V 3866 2358 50  0000 C CNN
F 2 "digikey-footprints:PinHeader_1x4_P2.54mm_Drill1.02mm" H 4200 2550 60  0001 L CNN
F 3 "https://www.molex.com/pdm_docs/sd/022232041_sd.pdf" H 4200 2650 60  0001 L CNN
F 4 "WM4202-ND" H 4200 2750 60  0001 L CNN "Digi-Key_PN"
F 5 "0022232041" H 4200 2850 60  0001 L CNN "MPN"
F 6 "Connectors, Interconnects" H 4200 2950 60  0001 L CNN "Category"
F 7 "Rectangular Connectors - Headers, Male Pins" H 4200 3050 60  0001 L CNN "Family"
F 8 "https://www.molex.com/pdm_docs/sd/022232041_sd.pdf" H 4200 3150 60  0001 L CNN "DK_Datasheet_Link"
F 9 "/product-detail/en/molex/0022232041/WM4202-ND/26671" H 4200 3250 60  0001 L CNN "DK_Detail_Page"
F 10 "CONN HEADER VERT 4POS 2.54MM" H 4200 3350 60  0001 L CNN "Description"
F 11 "Molex" H 4200 3450 60  0001 L CNN "Manufacturer"
F 12 "Active" H 4200 3550 60  0001 L CNN "Status"
	1    4000 2350
	0    1    1    0   
$EndComp
Text GLabel 3600 3650 2    50   Input ~ 0
SDA
Text GLabel 3600 3750 2    50   Input ~ 0
SCL
Text GLabel 4400 2550 2    50   Input ~ 0
SDA
Text GLabel 4400 2650 2    50   Input ~ 0
SCL
$Comp
L power:Earth #PWR?
U 1 1 5E0A9084
P 3050 4600
F 0 "#PWR?" H 3050 4350 50  0001 C CNN
F 1 "Earth" H 3050 4450 50  0001 C CNN
F 2 "" H 3050 4600 50  0001 C CNN
F 3 "~" H 3050 4600 50  0001 C CNN
	1    3050 4600
	1    0    0    -1  
$EndComp
$Comp
L power:Earth #PWR?
U 1 1 5E0AADCB
P 1500 2600
F 0 "#PWR?" H 1500 2350 50  0001 C CNN
F 1 "Earth" H 1500 2450 50  0001 C CNN
F 2 "" H 1500 2600 50  0001 C CNN
F 3 "~" H 1500 2600 50  0001 C CNN
	1    1500 2600
	1    0    0    -1  
$EndComp
$Comp
L power:Earth #PWR?
U 1 1 5E0AD330
P 1100 3250
F 0 "#PWR?" H 1100 3000 50  0001 C CNN
F 1 "Earth" H 1100 3100 50  0001 C CNN
F 2 "" H 1100 3250 50  0001 C CNN
F 3 "~" H 1100 3250 50  0001 C CNN
	1    1100 3250
	1    0    0    -1  
$EndComp
$Comp
L power:Earth #PWR?
U 1 1 5E0AE263
P 4300 2350
F 0 "#PWR?" H 4300 2100 50  0001 C CNN
F 1 "Earth" H 4300 2200 50  0001 C CNN
F 2 "" H 4300 2350 50  0001 C CNN
F 3 "~" H 4300 2350 50  0001 C CNN
	1    4300 2350
	0    -1   -1   0   
$EndComp
$Comp
L power:VCC #PWR?
U 1 1 5E0B1A70
P 1500 1700
F 0 "#PWR?" H 1500 1550 50  0001 C CNN
F 1 "VCC" H 1517 1873 50  0000 C CNN
F 2 "" H 1500 1700 50  0001 C CNN
F 3 "" H 1500 1700 50  0001 C CNN
	1    1500 1700
	1    0    0    -1  
$EndComp
Wire Wire Line
	3450 3650 3600 3650
Wire Wire Line
	3050 4600 3050 4500
Wire Wire Line
	3450 3750 3600 3750
Wire Wire Line
	4100 2550 4400 2550
Wire Wire Line
	4400 2650 4100 2650
$Comp
L power:VCC #PWR?
U 1 1 5E0B23F0
P 4550 2450
F 0 "#PWR?" H 4550 2300 50  0001 C CNN
F 1 "VCC" H 4567 2623 50  0000 C CNN
F 2 "" H 4550 2450 50  0001 C CNN
F 3 "" H 4550 2450 50  0001 C CNN
	1    4550 2450
	1    0    0    -1  
$EndComp
Wire Wire Line
	4100 2350 4300 2350
Wire Wire Line
	4100 2450 4550 2450
Wire Wire Line
	3150 2250 3150 2150
Wire Wire Line
	1800 2150 1800 2500
Wire Wire Line
	2150 2500 2150 2850
Wire Wire Line
	1800 2500 2000 2500
Wire Wire Line
	1650 3050 1800 3050
Wire Wire Line
	1650 3150 1800 3150
Wire Wire Line
	1350 3150 1100 3150
Wire Wire Line
	1100 3150 1100 3250
Wire Wire Line
	1350 3050 1100 3050
Wire Wire Line
	1100 3050 1100 3150
Connection ~ 1100 3150
Wire Wire Line
	1500 2600 1500 2450
Wire Wire Line
	1500 1850 1500 1700
Wire Wire Line
	2000 2150 2000 2500
Connection ~ 2000 2500
Wire Wire Line
	2000 2500 2150 2500
Wire Wire Line
	2100 3150 2450 3150
Wire Wire Line
	2100 3050 2450 3050
Wire Wire Line
	2150 2850 2450 2850
$Comp
L power:VCC #PWR?
U 1 1 5E0A9943
P 3150 2150
F 0 "#PWR?" H 3150 2000 50  0001 C CNN
F 1 "VCC" H 3167 2323 50  0000 C CNN
F 2 "" H 3150 2150 50  0001 C CNN
F 3 "" H 3150 2150 50  0001 C CNN
	1    3150 2150
	1    0    0    -1  
$EndComp
$Comp
L MCU_Module:Arduino_Nano_v3.x A1
U 1 1 5E089F57
P 2950 3250
F 0 "A1" H 2950 2161 50  0000 C CNN
F 1 "Arduino_Nano_v3.x" H 2950 2070 50  0000 C CNN
F 2 "Module:Arduino_Nano" H 2950 3250 50  0001 C CIN
F 3 "http://www.mouser.com/pdfdocs/Gravitech_Arduino_Nano3_0.pdf" H 2950 3250 50  0001 C CNN
	1    2950 3250
	1    0    0    -1  
$EndComp
$Comp
L power:VCC #PWR?
U 1 1 5E0BE840
P 2450 2150
F 0 "#PWR?" H 2450 2000 50  0001 C CNN
F 1 "VCC" H 2467 2323 50  0000 C CNN
F 2 "" H 2450 2150 50  0001 C CNN
F 3 "" H 2450 2150 50  0001 C CNN
	1    2450 2150
	0    1    1    0   
$EndComp
Wire Wire Line
	2300 2150 2450 2150
Wire Wire Line
	2950 4250 2950 4500
Wire Wire Line
	2950 4500 3050 4500
Connection ~ 3050 4500
Wire Wire Line
	3050 4500 3050 4250
$EndSCHEMATC
